…
As distance from employment centers increases, crime looks like it decreases. 

#d. 

```r
zmsummary = bos %>% group_by(zn) %>% summarise(mcrime = mean(crim), mtax = mean(tax), mptratio = mean(ptratio))
zmsummary
```

```
## # A tibble: 26 x 4
##       zn     mcrime     mtax mptratio
##    <dbl>      <dbl>    <dbl>    <dbl>
##  1   0.0 4.86848648 449.1828 19.05780
##  2  12.5 0.13718500 321.2000 16.31000
##  3  17.5 0.01951000 216.0000 18.60000
##  4  18.0 0.00632000 296.0000 15.30000
##  5  20.0 0.41906952 245.0952 14.69524
##  6  21.0 0.05887750 243.0000 16.80000
##  7  22.0 0.20944700 330.0000 19.10000
##  8  25.0 0.09733800 282.8000 19.42000
##  9  28.0 0.03790667 270.0000 18.20000
## 10  30.0 0.10414000 300.0000 16.60000
## # ... with 16 more rows
```

Zone 20 has high crime, zone 45 has high tax, and zones 22 and 25 have a high ptratio. 

#e. 

```r
zmsummary2 = bos %>% group_by(zn) %>% summarise(charles = mean(chas))
zmsummary2
```

```
## # A tibble: 26 x 2
##       zn    charles
##    <dbl>      <dbl>
##  1   0.0 0.07526882
##  2  12.5 0.00000000
##  3  17.5 0.00000000
##  4  18.0 0.00000000
##  5  20.0 0.14285714
##  6  21.0 0.00000000
##  7  22.0 0.00000000
##  8  25.0 0.00000000
##  9  28.0 0.00000000
## 10  30.0 0.00000000
## # ... with 16 more rows
```
…
```
## [1] 19.05
```

The median ptratio is 19.05. 

#g. 

```r
zmsummary3 = bos %>% group_by(zn) %>% summarise(mvo = median(medv))
zmsummary3
```

```
## # A tibble: 26 x 2
##       zn   mvo
##    <dbl> <dbl>
##  1   0.0 19.75
##  2  12.5 19.90
##  3  17.5 33.00
##  4  18.0 24.00
##  5  20.0 35.20
##  6  21.0 21.95
##  7  22.0 24.45
##  8  25.0 23.10
##  9  28.0 22.90
## 10  30.0 22.75
## # ... with 16 more rows
```
…
Zone 35 has the lowest median value of owner occupied homes. Mean crime is low, mean industrial proportion is 4.5. Mean nitrogen is .43. Mean age is 33.66.

#h.

```r
zmsummary4 = bos %>% group_by(zn) %>% summarise(mrm = mean(rm))
zmsummary4
```

```
## # A tibble: 26 x 2
##       zn      mrm
##    <dbl>    <dbl>
##  1   0.0 6.147922
##  2  12.5 5.945100
##  3  17.5 7.104000
##  4  18.0 6.575000
##  5  20.0 7.160190
##  6  21.0 6.146750
##  7  22.0 6.482400
##  8  25.0 6.281200
##  9  28.0 6.300667
## 10  30.0 6.471667
## # ... with 16 more rows
```
…
